[
  {
    "line": 2,
    "elements": [
      {
        "line": 7,
        "name": "Abrir el navegador en pagina de Twitter y acceder con las credenciales de twitter",
        "description": "",
        "type": "background",
        "keyword": "Background",
        "steps": [
          {
            "result": {
              "duration": 15073461941,
              "status": "passed"
            },
            "line": 8,
            "name": "que developer acc abrio el navegador en la pagina de twitter",
            "match": {
              "location": "StepsDefinition.que_developer_acc_abrio_el_navegador_en_la_pagina_de_twitter()"
            },
            "keyword": "Given "
          },
          {
            "result": {
              "duration": 3645576852,
              "status": "passed"
            },
            "line": 9,
            "name": "ingresa las credenciales de DeveloperAcc5 con Staff2018",
            "match": {
              "arguments": [
                {
                  "val": "DeveloperAcc5",
                  "offset": 28
                },
                {
                  "val": "Staff2018",
                  "offset": 46
                }
              ],
              "location": "StepsDefinition.ingresa_las_credenciales(String,String)"
            },
            "keyword": "And "
          }
        ]
      },
      {
        "line": 12,
        "name": "PRUEBA A REALIZAR - Seguir y Enviar Twitt a Daniel Correa.",
        "description": "",
        "id": "funcionalidad---seguir-y-escribirle-a-daniel-correa-en-twitter.;prueba-a-realizar---seguir-y-enviar-twitt-a-daniel-correa.",
        "type": "scenario",
        "keyword": "Scenario",
        "steps": [
          {
            "result": {
              "duration": 11092252774,
              "status": "passed"
            },
            "line": 13,
            "name": "developer acc quiere buscar a @DN_C96 y enviarle un twitter que diga Este es un mensaje automatizado con CucumberGradle",
            "match": {
              "arguments": [
                {
                  "val": "@DN_C96",
                  "offset": 30
                },
                {
                  "val": "Este es un mensaje automatizado con CucumberGradle",
                  "offset": 69
                }
              ],
              "location": "StepsDefinition.developer_acc_quiere_seguir_y_twittear_a_daniel_correa(String,String)"
            },
            "keyword": "When "
          },
          {
            "result": {
              "duration": 10965389540,
              "status": "passed"
            },
            "line": 14,
            "name": "@DeveloperAcc5 espera haber enviado su mensaje a Daniel Correa diciendo @DN_C96 Este es un mensaje automatizado con CucumberGradle",
            "match": {
              "arguments": [
                {
                  "val": "@DeveloperAcc5",
                  "offset": 0
                },
                {
                  "val": "@DN_C96 Este es un mensaje automatizado con CucumberGradle",
                  "offset": 72
                }
              ],
              "location": "StepsDefinition.developer_acc_espera_haber_enviado_su_mensaje_a_daniel_correa(String,String)"
            },
            "keyword": "Then "
          }
        ],
        "tags": [
          {
            "name": "@Feature1"
          },
          {
            "name": "@tag1"
          }
        ]
      }
    ],
    "name": "FUNCIONALIDAD - Seguir y escribirle a Daniel Correa en Twitter.",
    "description": "COMO un usuario de twitterestudiante@elpoli.edu.co\nQUIERO loguearme en twitter\nPARA seguir y twittear a Daniel Correa.",
    "id": "funcionalidad---seguir-y-escribirle-a-daniel-correa-en-twitter.",
    "keyword": "Feature",
    "uri": "src/test/resources/features/Twitter.feature",
    "tags": [
      {
        "name": "@Feature1",
        "type": "Tag",
        "location": {
          "line": 1,
          "column": 1
        }
      }
    ]
  }
]